45 992 179
150 739 171
836 76 171
360 431 134
451 529 142
6 906 179
301 871 179
457 934 179
303 240 123
33 445 144
273 610 144
612 259 144
523 184 144
434 944 179
640 606 132
909 697 179
86 753 171
439 807 171
962 380 179
732 530 171
478 538 142
168 752 171
301 829 171
579 923 179
937 262 179
882 910 148
824 616 171
290 487 144
983 423 179
610 909 179
711 533 171
727 140 171
889 552 179
964 854 179
601 252 144
488 734 171
265 286 123
299 880 179
17 57 113
112 187 125
342 923 179
27 383 144
547 613 137
539 742 171
499 880 179
965 1000 143
559 340 142
605 587 119
828 944 179
637 275 144
645 228 144
203 786 171
713 870 153
908 445 179
951 472 179
963 336 179
948 709 179
777 366 171
60 475 144
420 479 129
596 516 137
942 998 143
752 557 171
24 651 145
482 360 134
737 160 171
842 217 171
912 277 179
651 305 145
218 520 144
405 624 142
108 708 171
494 43 144
592 156 144
527 998 179
375 573 142
8 180 125
768 634 171
420 940 179
740 50 171
741 644 171
743 99 171
196 36 125
424 899 179
595 619 132
378 78 144
802 388 171
285 234 128
185 978 179
68 252 128
526 869 171
906 40 179
327 664 145
390 570 142
255 726 171
503 2 144
796 853 135
165 520 144
491 367 142
264 631 144
473 727 171
372 690 145
351 116 144
677 737 171
528 279 144
430 841 171
258 133 128
540 803 171
686 817 171
386 227 144
271 818 171
910 183 179
305 980 179
11 189 125
662 67 145
98 81 119
46 976 179
234 883 179
529 87 144
999 376 179
540 77 144
686 510 145
975 210 179
302 503 144
545 913 179
303 107 128
935 220 179
402 460 134
58 389 144
141 874 179
706 346 171
218 658 145
287 121 128
699 909 179
330 965 179
360 668 145
615 426 142
523 437 142
314 249 131
408 471 134
971 520 179
880 386 179
336 811 171
764 310 171
160 496 144
973 527 179
568 375 142
531 349 142
333 769 171
643 564 132
