.............
----------------------------------------------------------------------
Ran 13 tests in 2.376s

OK
Name             Stmts   Miss Branch BrPart  Cover   Missing
------------------------------------------------------------
Collatz.py          33      0     14      0   100%
TestCollatz.py      60      0      0      0   100%
------------------------------------------------------------
TOTAL               93      0     14      0   100%
