..................
----------------------------------------------------------------------
Ran 18 tests in 0.027s

OK
Name             Stmts   Miss Branch BrPart  Cover   Missing
------------------------------------------------------------
Collatz.py          50      0     22      0   100%
TestCollatz.py      79      0      0      0   100%
------------------------------------------------------------
TOTAL              129      0     22      0   100%
