..................
----------------------------------------------------------------------
Ran 18 tests in 0.530s

OK
Name             Stmts   Miss Branch BrPart  Cover   Missing
------------------------------------------------------------
Collatz.py          45      0     20      0   100%
TestCollatz.py      75      0      0      0   100%
------------------------------------------------------------
TOTAL              120      0     20      0   100%
